module gitlab.com/sebvaut/authenticator

go 1.13

require (
	github.com/coreos/go-oidc v2.2.1+incompatible
	github.com/gorilla/sessions v1.2.0
	github.com/pquerna/cachecontrol v0.0.0-20180517163645-1555304b9b35 // indirect
	github.com/stretchr/testify v1.4.0 // indirect
	golang.org/x/crypto v0.0.0-20200208060501-ecb85df21340 // indirect
	golang.org/x/oauth2 v0.0.0-20200107190931-bf48bf16ab8d
	gopkg.in/square/go-jose.v2 v2.4.1 // indirect
)
